{
  "Version": "XiaoMiTuiGuang",
  "VersionNo": "1.0",
  "Active": true,
  "JsonCtrlBt": true,
  "BtNeedShowCost": true,
  "HintTextDependOnBt": false,
  "FreeRebornTimes": 0,
  "Shop": {
    "Name": "Mall",
    "Active": false
  },
  "AoteZhaohuan": {
    "Name": "Role call",
    "Active": true,
    "Title": "A key call",
    "ParameterA": 0,
    "LevelLimitActive": true,
    "MinLevelToShow": 5,
    "DateLimitActive": false,
    "CloseBtSprite": "btn_close",
    "CloseBtScale": 1,
    "NowBuyOnClickArea": "220*80"
  },
  "NewPlayerGift": {
    "Name": "Novice",
    "Active": true,
    "Title": "Novice packs",
    "ParameterA": 0,
    "LevelLimitActive": false,
    "DateLimitActive": false,
    "CloseBtSprite": "btn_close_hei",
    "CloseBtScale": 1,
    "ShowCancelBt": false,
    "NowBuyOnClickArea": "800*600",
    "HintText1Active": true,
    "HintText1": "Novice spree，Only once",
    "HintText2Active": true,
    "HintText2": "Thanks to the white who pay in silence",
    "Hint1FontSize": 16,
    "Hint1Color": "255|255|255|255",
    "Hint1ShadowColor": "54|182|201|255",
    "Hint1OutlineColor": "214|98|30|255",
    "Hint2FontSize": 16,
    "Hint2Color": "255|255|255|255",
    "Hint2ShadowColor": "20|133|150|255",
    "Hint2OutlineColor": "214|98|30|255",
    "ButtonText": "Get it",
    "Content": "5*1|6*1|1*5000"
  },
  "MultiCoin": {
    "Name": "Double gold coins",
    "Active": true,
    "Title": " Double gold coins",
    "ParameterA": 2,
    "LevelLimitActive": true,
    "MinLevelToShow": 3,
    "DateLimitActive": false,
    "CloseBtSprite": "btn_close_hei",
    "CloseBtScale": 1,
    "ShowCancelBt": false,
    "NowBuyOnClickArea": "800*550",
    "HintText1Active": true,
    "HintText1": "Double gold coins，Time to buy",
    "HintText2Active": true,
    "HintText2": "No longer have to worry about gold is not enough",
    "Hint1FontSize": 16,
    "Hint1Color": "255|255|255|255",
    "Hint1ShadowColor": "54|182|201|255",
    "Hint1OutlineColor": "214|98|30|255",
    "Hint2FontSize": 16,
    "Hint2Color": "255|255|255|255",
    "Hint2ShadowColor": "20|133|150|255",
    "Hint2OutlineColor": "214|98|30|255",
    "ButtonText": "Get it"
  },
  "CharactersGift": {
    "Name": "Role packs",
    "Active": true,
    "Title": "Role packs",
    "ParameterA": 1,
    "LevelLimitActive": true,
    "MinLevelToShow": 3,
    "DateLimitActive": false,
    "CloseBtSprite": "btn_close_hei",
    "CloseBtScale": 1,
    "ShowCancelBt": false,
    "NowBuyOnClickArea": "800*305",
    "HintText1Active": true,
    "HintText1": "Steamed box number partner to take away",
    "HintText2Active": true,
    "HintText2": "And enter the civilized journey with the steamer box number partner",
    "Hint1FontSize": 16,
    "Hint1Color": "255|255|255|255",
    "Hint1ShadowColor": "54|182|201|255",
    "Hint1OutlineColor": "214|98|30|255",
    "Hint2FontSize": 16,
    "Hint2Color": "25|121|135|255",
    "Hint2ShadowColor": "20|133|150|255",
    "Hint2OutlineColor": "214|98|30|255",
    "ButtonText": "Get it"
  },
  "OneKey2FullLV": {
    "Name": "一键满级",
    "Active": true,
    "Title": "A key full level",
    "ParameterA": 2,
    "LevelLimitActive": true,
    "MinLevelToShow": 3,
    "MaxRoleLevelToShow": 20,
    "DateLimitActive": false,
    "CloseBtSprite": "btn_close_hei",
    "CloseBtScale": 1,
    "ShowCancelBt": false,
    "NowBuyOnClickArea": "800*550",
    "HintText1Active": true,
    "HintText1": "A key full level，Time to buy",
    "HintText2Active": false,
    "HintText2": "Instantly beat the pirates",
    "Hint1FontSize": 16,
    "Hint1Color": "52|198|219|255",
    "Hint1ShadowColor": "54|182|201|0",
    "Hint1OutlineColor": "214|98|30|255",
    "Hint2FontSize": 16,
    "Hint2Color": "255|255|255|255",
    "Hint2ShadowColor": "20|133|150|255",
    "Hint2OutlineColor": "214|98|30|255",
    "ButtonText": "Get it"
  },
  "PowerGift": {
    "Name": "Physical packs",
    "Active": true,
    "Title": "Energy package",
    "LevelLimitActive": false,
    "DateLimitActive": false,
    "CloseBtSprite": "btn_close_hei",
    "CloseBtScale": 1,
    "ShowCancelBt": false,
    "NowBuyOnClickArea": "800*600",
    "HintText1Active": true,
    "HintText1": "Regain strength，Time to buy",
    "HintText2Active": true,
    "HintText2": "Energetic, play games",
    "Hint1FontSize": 16,
    "Hint1Color": "255|255|255|255",
    "Hint1ShadowColor": "54|182|201|255",
    "Hint1OutlineColor": "214|98|30|255",
    "Hint2FontSize": 16,
    "Hint2Color": "255|255|255|255",
    "Hint2ShadowColor": "20|133|150|255",
    "Hint2OutlineColor": "214|98|30|255",
    "ButtonText": "Get it",
    "Content": "3*20"
  },
  "JewelGift": {
    "Name": "Diamond packs",
    "Active": true,
    "Title": "Diamond packs",
    "LevelLimitActive": false,
    "DateLimitActive": false,
    "CloseBtSprite": "btn_close_hei",
    "CloseBtScale": 1,
    "ShowCancelBt": false,
    "NowBuyOnClickArea": "800*600",
    "HintText1Active": true,
    "HintText1": "Add diamonds，Time to buy",
    "HintText2Active": true,
    "HintText2": "Buy 140 diamonds for extra 40 diamonds",
    "Hint1FontSize": 16,
    "Hint1Color": "255|255|255|255",
    "Hint1ShadowColor": "54|182|201|255",
    "Hint1OutlineColor": "214|98|30|255",
    "Hint2FontSize": 16,
    "Hint2Color": "255|255|255|255",
    "Hint2ShadowColor": "20|133|150|255",
    "Hint2OutlineColor": "214|98|30|255",
    "ButtonText": "Get it",
    "Content": "2*180"
  },
  "Jewel20Gift": {
    "Name": "20 diamond",
    "Active": true,
    "Title": "Buy diamonds",
    "LevelLimitActive": false,
    "DateLimitActive": false,
    "CloseBtSprite": "btn_close_hei",
    "CloseBtScale": 1,
    "ShowCancelBt": false,
    "NowBuyOnClickArea": "800*600",
    "HintText1Active": true,
    "HintText1": "Buy diamonds，Time to buy",
    "HintText2Active": true,
    "HintText2": "Diamond limited time discount！",
    "Hint1FontSize": 16,
    "Hint1Color": "255|255|255|255",
    "Hint1ShadowColor": "54|182|201|255",
    "Hint1OutlineColor": "214|98|30|255",
    "Hint2FontSize": 16,
    "Hint2Color": "255|255|255|255",
    "Hint2ShadowColor": "20|133|150|255",
    "Hint2OutlineColor": "214|98|30|255",
    "ButtonText": "Get it",
    "Content": "2*20"
  },
  "ChangWanGift": {
    "Name": "Play bag (a small amount of diamond billing point)",
    "Active": false,
    "Title": "Play packs",
    "LevelLimitActive": true,
    "MinLevelToShow": 6,
    "DateLimitActive": false,
    "AsReplenishGift": false,
    "CloseBtSprite": "btn_close",
    "CloseBtScale": 1,
    "ShowCancelBt": true,
    "NowBuyOnClickArea": "220*80",
    "HintText1Active": true,
    "HintText1": "Diamond purchase，Time to buy",
    "HintText2Active": true,
    "HintText2": "Diamond limited time discount！",
    "Hint1FontSize": 16,
    "Hint1Color": "255|255|255|255",
    "Hint1ShadowColor": "54|182|201|255",
    "Hint1OutlineColor": "214|98|30|255",
    "Hint2FontSize": 16,
    "Hint2Color": "255|255|255|255",
    "Hint2ShadowColor": "20|133|150|255",
    "Hint2OutlineColor": "214|98|30|255",
    "ButtonText": "￥ usd",
    "Content": "2*20",
    "GiftID":20160411
  },
  "RewardsGift5Stars": {
    "Name": "Five star package",
    "Active": true,
    "Title": "Five star package",
    "LevelLimitActive": false,
    "DateLimitActive": false,
    "CloseBtSprite": "btn_close_hei",
    "CloseBtScale": 1,
    "ShowCancelBt": false,
    "NowBuyOnClickArea": "800*600",
    "HintText1Active": true,
    "HintText1": "Diamond offers，Time to buy",
    "HintText2Active": true,
    "HintText2": "The history of the cheapest diamonds",
    "Hint1FontSize": 16,
    "Hint1Color": "255|255|255|255",
    "Hint1ShadowColor": "54|182|201|255",
    "Hint1OutlineColor": "214|98|30|255",
    "Hint2FontSize": 16,
    "Hint2Color": "255|255|255|255",
    "Hint2ShadowColor": "20|133|150|255",
    "Hint2OutlineColor": "214|98|30|255",
    "ButtonText": "Get it",
    "Content": "2*380"
  },
  "CoinGift": {
    "Name": "Gold coin pack",
    "Active": true,
    "Title": "Gold coin pack",
    "LevelLimitActive": false,
    "DateLimitActive": false,
    "CloseBtSprite": "btn_close_hei",
    "CloseBtScale": 1,
    "ShowCancelBt": false,
    "NowBuyOnClickArea": "800*600",
    "HintText1Active": true,
    "HintText1": "Add gold coins，Time to buy",
    "HintText2Active": true,
    "HintText2": "Buy 10,000 gold coins to get 10,000 gold coins",
    "Hint1FontSize": 16,
    "Hint1Color": "255|255|255|255",
    "Hint1ShadowColor": "54|182|201|255",
    "Hint1OutlineColor": "214|98|30|255",
    "Hint2FontSize": 16,
    "Hint2Color": "255|255|255|255",
    "Hint2ShadowColor": "20|133|150|255",
    "Hint2OutlineColor": "214|98|30|255",
    "ButtonText": "Get it",
    "Content": "1*20000"
  },
  "DiscountGift": {
    "Name": "C package",
    "Active": true,
    "Title": "Limited Time Offer",
    "LevelLimitActive": false,
    "DateLimitActive": false,
    "CloseBtSprite": "btn_close",
    "CloseBtScale": 1,
    "ShowCancelBt": false,
    "NowBuyOnClickArea": "220*80",
    "HintText1Active": true,
    "HintText1": "Add gold coins, limited time to buy",
    "HintText2Active": true,
    "HintText2": "Immediately received 55,000 gold coins",
    "Hint1FontSize": 16,
    "Hint1Color": "255|255|255|255",
    "Hint1ShadowColor": "54|182|201|255",
    "Hint1OutlineColor": "214|98|30|255",
    "Hint2FontSize": 16,
    "Hint2Color": "255|255|255|255",
    "Hint2ShadowColor": "20|133|150|255",
    "Hint2OutlineColor": "214|98|30|255",
    "ButtonText": "Get it",
    "Content": "1*55000"
  },
  "SheildGift": {
    "Name": "归墟庇护所",
    "Active": true,
    "Title": "Return to the shelter",
    "LevelLimitActive": false,
    "DateLimitActive": false,
    "CloseBtSprite": "btn_close_hei",
    "CloseBtScale": 1,
    "ShowCancelBt": false,
    "NowBuyOnClickArea": "800*600",
    "HintText1Active": true,
    "HintText1": "Supplementary shield，Time to buy",
    "HintText2Active": true,
    "HintText2": "Immediately get two internal forces shield!",
    "Hint1FontSize": 16,
    "Hint1Color": "255|255|255|255",
    "Hint1ShadowColor": "54|182|201|255",
    "Hint1OutlineColor": "214|98|30|255",
    "Hint2FontSize": 16,
    "Hint2Color": "255|255|255|255",
    "Hint2ShadowColor": "20|133|150|255",
    "Hint2OutlineColor": "214|98|30|255",
    "ButtonText": "Get it",
    "Content": "6*2"
  },
  "RewardsGift3Stars": {
    "Name": "通关奖励",
    "Active": true,
    "Title": "Three start",
    "LevelLimitActive": false,
    "DateLimitActive": false,
    "CloseBtSprite": "btn_close_hei",
    "CloseBtScale": 1,
    "ShowCancelBt": false,
    "NowBuyOnClickArea": "800*430",
    "HintText1Active": true,
    "HintText1": "Five star package，Time to buy",
    "HintText2Active": true,
    "HintText2": "5 magnet、5 Shield、5 Role relay",
    "Hint1FontSize": 16,
    "Hint1Color": "193|244|118|255",
    "Hint1ShadowColor": "54|182|201|255",
    "Hint1OutlineColor": "52|216|80|255",
    "Hint2FontSize": 16,
    "Hint2Color": "193|244|118|255",
    "Hint2ShadowColor": "20|133|150|255",
    "Hint2OutlineColor": "52|216|80|255",
    "ButtonText": "Get it",
    "Content": "5*5|6*5|10*5",
    "LevelToShow": "2|4|6|8|10|12|15|20",
    "ShowTimes": 1
  },
  "RewardsGift4Stars": {
    "Name": "a package",
    "Active": false,
    "Title": "Four star",
    "LevelLimitActive": false,
    "DateLimitActive": false,
    "CloseBtSprite": "btn_close",
    "CloseBtScale": 1,
    "ShowCancelBt": true,
    "NowBuyOnClickArea": "220*80",
    "HintText1Active": true,
    "HintText1": "Four star package，Time to buy",
    "HintText2Active": true,
    "HintText2": "20000 gold、3 missile、3 Shield、3 Turned into armor",
    "Hint1FontSize": 16,
    "Hint1Color": "255|255|255|255",
    "Hint1ShadowColor": "54|182|201|255",
    "Hint1OutlineColor": "214|98|30|255",
    "Hint2FontSize": 16,
    "Hint2Color": "255|255|255|255",
    "Hint2ShadowColor": "20|133|150|255",
    "Hint2OutlineColor": "214|98|30|255",
    "ButtonText": "￥ usd",
    "Content": "1*20000|5*3|6*3",
    "LevelToShow": "4|6|8|10|15|20",
    "ShowTimes": 1
  },
  "InnerGameGift": {
    "Name": "Checkpoints inside the pack",
    "Active": true,
    "Title": "Eat the mysterious treasure",
    "LevelLimitActive": false,
    "DateLimitActive": false,
    "CloseBtSprite": "btn_close_hei",
    "CloseBtScale": 1,
    "ShowCancelBt": false,
    "NowBuyOnClickArea": "800*600",
    "HintText1Active": true,
    "HintText1": "Eat the mysterious treasure，Time to buy",
    "HintText2Active": true,
    "HintText2": "Eat the mysterious treasure，Flying to escape！",
    "Hint1FontSize": 16,
    "Hint1Color": "255|255|255|255",
    "Hint1ShadowColor": "54|182|201|255",
    "Hint1OutlineColor": "214|98|30|255",
    "Hint2FontSize": 16,
    "Hint2Color": "255|255|255|255",
    "Hint2ShadowColor": "20|133|150|255",
    "Hint2OutlineColor": "214|98|30|255",
    "ButtonText": "Get it",
    "Content": "5*5|6*5|10*5",
    "LevelToShow": "3|5|7|9|11|13|15|20",
    "ShowTimes": 1
  },
  "FreeInnerGameGift": {
    "Name": "Free gift pack inside the checkpoint",
    "Active": true,
    "Title": "Eat the mysterious treasure",
    "LevelLimitActive": false,
    "DateLimitActive": false,
    "CloseBtSprite": "btn_close_hei",
    "CloseBtScale": 1,
    "ShowCancelBt": false,
    "NowBuyOnClickArea": "800*600",
    "HintText1Active": true,
    "HintText1": "Free to receive the mysterious treasure",
    "HintText2Active": true,
    "HintText2": "",
    "Hint1FontSize": 16,
    "Hint1Color": "255|255|255|255",
    "Hint1ShadowColor": "54|182|201|255",
    "Hint1OutlineColor": "214|98|30|255",
    "Hint2FontSize": 16,
    "Hint2Color": "255|255|255|255",
    "Hint2ShadowColor": "20|133|150|255",
    "Hint2OutlineColor": "214|98|30|255",
    "ButtonText": "Get it",
    "Content": "5*1|6*1",
    "LevelToShow": "2",
    "ShowTimes": 1
  },
  "Reborn": {
    "Name": "resurrection",
    "Active": true,
    "Title": "Resurrection",
    "LevelLimitActive": false,
    "DateLimitActive": false,
    "CloseBtSprite": "btn_close_hei",
    "CloseBtScale": 1,
    "ShowCancelBt": false,
    "NowBuyOnClickArea": "800*160",
    "HintText1Active": true,
    "HintText1": "Nu Wa blessing，Full of blood resurrection",
    "HintText2Active": true,
    "HintText2": "After the resurrection of the release of the great trick",
    "Hint1FontSize": 16,
    "Hint1Color": "52|198|219|255",
    "Hint1ShadowColor": "54|182|201|255",
    "Hint1OutlineColor": "214|98|30|255",
    "Hint2FontSize": 16,
    "Hint2Color": "255|255|255|255",
    "Hint2ShadowColor": "20|133|150|255",
    "Hint2OutlineColor": "214|98|30|255",
    "ButtonText": "Continue the game",
    "UseProps": false,
    "PropsCost": "2*40"
  },
  "FreeReborn": {
    "Name": "Free resurrection",
    "Active": true,
    "Title": "Resurrection",
    "LevelLimitActive": false,
    "DateLimitActive": false,
    "CloseBtSprite": "btn_close",
    "CloseBtScale": 1,
    "ShowCancelBt": false,
    "NowBuyOnClickArea": "800*160",
    "HintText1Active": true,
    "HintText1": "Nu Wa blessing, full of blood resurrection",
    "HintText2Active": true,
    "HintText2": "After the resurrection of the release of the great trick",
    "Hint1FontSize": 16,
    "Hint1Color": "52|198|219|255",
    "Hint1ShadowColor": "54|182|201|255",
    "Hint1OutlineColor": "214|98|30|255",
    "Hint2FontSize": 16,
    "Hint2Color": "255|255|255|255",
    "Hint2ShadowColor": "20|133|150|255",
    "Hint2OutlineColor": "214|98|30|255",
    "ButtonText": "Continue the game",
    "UseProps": false,
    "PropsCost": "2*40"
  }
}